^C:\USERS\MATHIEU\DOCUMENTS\VISUAL STUDIO 2013\PROJECTS\TUTOOPENGL\TUTOOPENGL\MAIN.CPP
/c /I"D:\Logiciels\Glew\glew-1.12.0\include" /I"D:\Logiciels\SDL\SDL2-2.0.3\include" /ZI /nologo /W3 /WX- /sdl /Od /Oy- /D WIN32 /D _DEBUG /D _CONSOLE /D _LIB /D _UNICODE /D UNICODE /Gm /EHsc /RTC1 /MDd /GS /fp:precise /Zc:wchar_t /Zc:forScope /Fo"DEBUG\\" /Fd"DEBUG\VC120.PDB" /Gd /TP /analyze- C:\USERS\MATHIEU\DOCUMENTS\VISUAL STUDIO 2013\PROJECTS\TUTOOPENGL\TUTOOPENGL\MAIN.CPP
^C:\USERS\MATHIEU\DOCUMENTS\VISUAL STUDIO 2013\PROJECTS\TUTOOPENGL\TUTOOPENGL\SCENEOPENGL.CPP
/c /I"D:\Logiciels\Glew\glew-1.12.0\include" /I"D:\Logiciels\SDL\SDL2-2.0.3\include" /ZI /nologo /W3 /WX- /sdl /Od /Oy- /D WIN32 /D _DEBUG /D _CONSOLE /D _LIB /D _UNICODE /D UNICODE /Gm /EHsc /RTC1 /MDd /GS /fp:precise /Zc:wchar_t /Zc:forScope /Fo"DEBUG\\" /Fd"DEBUG\VC120.PDB" /Gd /TP /analyze- C:\USERS\MATHIEU\DOCUMENTS\VISUAL STUDIO 2013\PROJECTS\TUTOOPENGL\TUTOOPENGL\SCENEOPENGL.CPP
