^C:\USERS\MATHIEU\DOCUMENTS\VISUAL STUDIO 2013\PROJECTS\TUTOOPENGL\TUTOOPENGL\DEBUG\MAIN.OBJ
/OUT:"C:\USERS\MATHIEU\DOCUMENTS\VISUAL STUDIO 2013\PROJECTS\TUTOOPENGL\DEBUG\TUTOOPENGL.EXE" /INCREMENTAL /NOLOGO /LIBPATH:"D:\Logiciels\Glew\glew-1.12.0\lib\Release\Win32" /LIBPATH:"D:\Logiciels\SDL\SDL2-2.0.3\lib\x86" SDL2.lib SDL2main.lib glew32.lib glu32.lib opengl32.lib kernel32.lib user32.lib gdi32.lib winspool.lib comdlg32.lib advapi32.lib shell32.lib ole32.lib oleaut32.lib uuid.lib odbc32.lib odbccp32.lib /MANIFEST /MANIFESTUAC:"level='asInvoker' uiAccess='false'" /manifest:embed /DEBUG /PDB:"C:\USERS\MATHIEU\DOCUMENTS\VISUAL STUDIO 2013\PROJECTS\TUTOOPENGL\DEBUG\TUTOOPENGL.PDB" /SUBSYSTEM:WINDOWS /TLBID:1 /DYNAMICBASE /NXCOMPAT /IMPLIB:"C:\USERS\MATHIEU\DOCUMENTS\VISUAL STUDIO 2013\PROJECTS\TUTOOPENGL\DEBUG\TUTOOPENGL.LIB" /MACHINE:X86 DEBUG\MAIN.OBJ
^C:\USERS\MATHIEU\DOCUMENTS\VISUAL STUDIO 2013\PROJECTS\TUTOOPENGL\TUTOOPENGL\DEBUG\MAIN.OBJ|C:\USERS\MATHIEU\DOCUMENTS\VISUAL STUDIO 2013\PROJECTS\TUTOOPENGL\TUTOOPENGL\DEBUG\SCENEOPENGL.OBJ
/OUT:"C:\USERS\MATHIEU\DOCUMENTS\VISUAL STUDIO 2013\PROJECTS\TUTOOPENGL\DEBUG\TUTOOPENGL.EXE" /INCREMENTAL /NOLOGO /LIBPATH:"D:\Logiciels\Glew\glew-1.12.0\lib\Release\Win32" /LIBPATH:"D:\Logiciels\SDL\SDL2-2.0.3\lib\x86" SDL2.lib SDL2main.lib glew32.lib glu32.lib opengl32.lib kernel32.lib user32.lib gdi32.lib winspool.lib comdlg32.lib advapi32.lib shell32.lib ole32.lib oleaut32.lib uuid.lib odbc32.lib odbccp32.lib /MANIFEST /MANIFESTUAC:"level='asInvoker' uiAccess='false'" /manifest:embed /DEBUG /PDB:"C:\USERS\MATHIEU\DOCUMENTS\VISUAL STUDIO 2013\PROJECTS\TUTOOPENGL\DEBUG\TUTOOPENGL.PDB" /SUBSYSTEM:WINDOWS /TLBID:1 /DYNAMICBASE /NXCOMPAT /IMPLIB:"C:\USERS\MATHIEU\DOCUMENTS\VISUAL STUDIO 2013\PROJECTS\TUTOOPENGL\DEBUG\TUTOOPENGL.LIB" /MACHINE:X86 DEBUG\MAIN.OBJDEBUG\SCENEOPENGL.OBJ
